Taiwan Restaurants-MP2
…
Test New Implemented Function

scrape_page_im("https://www.tripadvisor.com/Restaurants-g293913-oa")

# A tibble: 30 × 5
   rest_name                                cuisine ratings location num_reviews
   <chr>                                    <chr>     <dbl> <chr>          <dbl>
 1 Umeko Restaurant                         Chines…     4.5 Zhongsh…         635
 2 食令Shabu                                Seafoo…     4.9 Xinyi D…        1374
 3 Din Tai Fung                             Taiwan…     4.5 Xinyi D…        4722
 4 A Point Steak & Bar                      Steakh…     4.9 Xinyi D…         467
 5 Shin Yeh Taiwanese Cuisine-Original Res… Chines…     4.2 Zhongsh…         686
 6 Formosa Restaurant                       Chines…     4.9 Da'an            169
 7 Mosun Teppanyaki                         Southw…     4.9 Da'an            831
 8 Host Shabu                               Seafoo…     4.8 Xinyi D…        2441
 9 Yang Shin Vegetarian Restaurant          Canton…     4.4 Zhongsh…        2431
10 Hangzhou Xiaolong Bao                    Chines…     4.2 Da'an            806
# ℹ 20 more rows
…
urls_all_pages <- str_c(base_url1, sequence, base_url2)
url_first_page <- "https://www.tripadvisor.com/Restaurants-g293913-Taipei.html"

Using map functions in the purrr package

Here, we applied it to first_page using “url_first_page”, then to all other pages using “urls_all_pages”. After that, we combine all the results into one dataset called “rest_info” using ‘bind_rows()’ function.

first_page <- purrr::map(url_first_page, scrape_page_im)
pages <- purrr::map(urls_all_pages, scrape_page_im)
rest_info <- bind_rows(first_page, pages)

rest_info

# A tibble: 180 × 5
   rest_name                                cuisine ratings location num_reviews
   <chr>                                    <chr>     <dbl> <chr>          <dbl>
 1 Umeko Restaurant                         Chines…     4.5 Zhongsh…         635
 2 食令Shabu                                Seafoo…     4.9 Xinyi D…        1374
 3 Din Tai Fung                             Taiwan…     4.5 Xinyi D…        4722
 4 A Point Steak & Bar                      Steakh…     4.9 Xinyi D…         467
 5 Shin Yeh Taiwanese Cuisine-Original Res… Chines…     4.2 Zhongsh…         686
 6 Formosa Restaurant                       Chines…     4.9 Da'an            169
 7 Mosun Teppanyaki                         Southw…     4.9 Da'an            831
 8 Host Shabu                               Seafoo…     4.8 Xinyi D…        2441
 9 Yang Shin Vegetarian Restaurant          Canton…     4.4 Zhongsh…        2431
10 Hangzhou Xiaolong Bao                    Chines…     4.2 Da'an            806
# ℹ 170 more rows
…
